{
  "project_info": {
    "project_number": "421487033677",
    "firebase_url": "https://rela-698eb.firebaseio.com",
    "project_id": "rela-698eb",
    "storage_bucket": "rela-698eb.appspot.com"
  },
  "client": [
    {
      "client_info": {
        "mobilesdk_app_id": "1:421487033677:android:0689a8ef9a65b75f",
        "android_client_info": {
          "package_name": "com.thel"
        }
      },
      "oauth_client": [
        {
          "client_id": "421487033677-7mmur271qj0eiphok4563opn041uq3hr.apps.googleusercontent.com",
          "client_type": 3
        }
      ],
      "api_key": [
        {
          "current_key": "AIzaSyBGlRos7XGbyGMVIaQ3h1OGdYM68xlAJKw"
        }
      ],
      "services": {
        "appinvite_service": {
          "other_platform_oauth_client": [
            {
              "client_id": "421487033677-7mmur271qj0eiphok4563opn041uq3hr.apps.googleusercontent.com",
              "client_type": 3
            },
            {
              "client_id": "421487033677-7t6b2f3dar5f05v39l6hefiq9bq53f71.apps.googleusercontent.com",
              "client_type": 2,
              "ios_info": {
                "bundle_id": "com.rela",
                "app_store_id": "1086944243"
              }
            }
          ]
        }
      }
    },
    {
      "client_info": {
        "mobilesdk_app_id": "1:421487033677:android:5a29932f64d8993b",
        "android_client_info": {
          "package_name": "com.thel.global"
        }
      },
      "oauth_client": [
        {
          "client_id": "421487033677-4blcqt5bc4jfkc8bg2q2vq2mopc7k261.apps.googleusercontent.com",
          "client_type": 1,
          "android_info": {
            "package_name": "com.thel.global",
            "certificate_hash": "35e48c76ff3adb0e27aa411a0a5c0374be7379bb"
          }
        },
        {
          "client_id": "421487033677-7mmur271qj0eiphok4563opn041uq3hr.apps.googleusercontent.com",
          "client_type": 3
        }
      ],
      "api_key": [
        {
          "current_key": "AIzaSyBGlRos7XGbyGMVIaQ3h1OGdYM68xlAJKw"
        }
      ],
      "services": {
        "appinvite_service": {
          "other_platform_oauth_client": [
            {
              "client_id": "421487033677-7mmur271qj0eiphok4563opn041uq3hr.apps.googleusercontent.com",
              "client_type": 3
            },
            {
              "client_id": "421487033677-7t6b2f3dar5f05v39l6hefiq9bq53f71.apps.googleusercontent.com",
              "client_type": 2,
              "ios_info": {
                "bundle_id": "com.rela",
                "app_store_id": "1086944243"
              }
            }
          ]
        }
      }
    }
  ],
  "configuration_version": "1"
}